{
  "project_info": {
    "project_number": "396184830990",
    "project_id": "fileuploader-1faaa",
    "storage_bucket": "fileuploader-1faaa.appspot.com"
  },
  "client": [
    {
      "client_info": {
        "mobilesdk_app_id": "1:396184830990:android:7807dec5c3d10086e1285f",
        "android_client_info": {
          "package_name": "com.example.fileuploader"
        }
      },
      "oauth_client": [
        {
          "client_id": "396184830990-n3n70eg0mk00ib7tllp78dp2j734fe0b.apps.googleusercontent.com",
          "client_type": 1,
          "android_info": {
            "package_name": "com.example.fileuploader",
            "certificate_hash": "8c1985c72d512f524ba561e675d20c670b567e45"
          }
        },
        {
          "client_id": "396184830990-7lou5duv9074afhukev9763iqo9hkn8v.apps.googleusercontent.com",
          "client_type": 3
        }
      ],
      "api_key": [
        {
          "current_key": "AIzaSyD_8gr8LKC2WC5Dgp_-jUzG59CykO2S5i4"
        }
      ],
      "services": {
        "appinvite_service": {
          "other_platform_oauth_client": [
            {
              "client_id": "396184830990-7lou5duv9074afhukev9763iqo9hkn8v.apps.googleusercontent.com",
              "client_type": 3
            }
          ]
        }
      }
    }
  ],
  "configuration_version": "1"
}